<<<<<<< HEAD
!include -c <ResponisiveSiteAutomationSuite.Tc1SearchAndVerifyPropertiesTestWeb.PageLocators

!4 Overridden scenario web - close modal and verify if My Page button exists
!|Scenario            |verify login                                                                              |
|wait  for  element   |{$SEARCHPAGE.modalclosebutton}                                                            |
|click                |{$SEARCHPAGE.modalclosebutton}                                                            |
|variable             |loginSuccess   |equals  to                                                                |
|wait  for  element   |{$MENU.myzillowbutton}                                                                    |
|assert and log result|{$loginSuccess}|for assert type|POS|with comment|Assert login success|in page|Verify Login|


!|Scenario            |verify saved search                                                                                                                    |
|click                |{$MENU.myzillowbutton}                                                                                                                 |
|wait  for  element   |{$SAVEDSEARCHPAGE.savedsearchbutton}                                                                                                   |
|click                |{$SAVEDSEARCHPAGE.savedsearchbutton}                                                                                                   |
|variable             |isSearchSaved   |equals  to                                                                                                            |
|wait  for  element   |{$SAVEDSEARCHPAGE.saveditem}                                                                                                           |
|assert and log result|{$isSearchSaved}|for assert type|POS|with comment|Assert saved search exists                               |in page|Verify Saved Search|
|If                   |{$isSearchSaved}                                                                                                                       |
|variable             |title           |equals  to                                                                                                            |
|get  text  from      |{$SAVEDSEARCHPAGE.saveditemtitle}                                                                                                      |
|variable             |summary         |equals  to                                                                                                            |
|get  text  from      |{$SAVEDSEARCHPAGE.saveditemdescription}                                                                                                |
|assert and log result|COMMENT         |for assert type|NA |with comment|Saved search details: Title: {$title} Summary: {$summary}|in page|Saved Search       |
|End If                                                                                                                                                       |


!|Scenario|select beds               |beds              |
|click    |.//*[@id='beds-menu-label']/div              |
|click    |.//*[@id='bed-options']//a[text()='@beds']/..|


!|Scenario            |select baths            |baths             |
|click                |.//div[contains(text(),'more')]            |
|click                |.//*[@id='baths-dropdown']                 |
|click                |.//*[@id='bath-options']//a[text()='2+']/..|
|click                |.//*[@id='filterSearchButton']/span        |
|pause  execution  for|3                       |seconds           |

!|Scenario            |set price range                             |
|click                |.//*[@id='price-menu-label']/div            |
|pause  execution  for|2     |seconds                              |
|clear  text          |.//*[@id='price-min']                       |
|type                 |100000|into|.//*[@id='price-min']|text field|
|clear  text          |.//*[@id='price-max']                       |
|type                 |500000|into|.//*[@id='price-max']|text field|
=======
!include -c <ResponisiveSiteAutomationSuite.Tc1SearchAndVerifyPropertiesTestWeb.PageLocators

!4 Overridden scenario web - close modal and verify if My Page button exists
!|Scenario            |verify login                                                                              |
|wait  for  element   |{$SEARCHPAGE.modalclosebutton}                                                            |
|click                |{$SEARCHPAGE.modalclosebutton}                                                            |
|variable             |loginSuccess   |equals  to                                                                |
|wait  for  element   |{$MENU.myzillowbutton}                                                                    |
|assert and log result|{$loginSuccess}|for assert type|POS|with comment|Assert login success|in page|Verify Login|


!|Scenario            |verify saved search                                                                                                                    |
|click                |{$MENU.myzillowbutton}                                                                                                                 |
|wait  for  element   |{$SAVEDSEARCHPAGE.savedsearchbutton}                                                                                                   |
|click                |{$SAVEDSEARCHPAGE.savedsearchbutton}                                                                                                   |
|variable             |isSearchSaved   |equals  to                                                                                                            |
|wait  for  element   |{$SAVEDSEARCHPAGE.saveditem}                                                                                                           |
|assert and log result|{$isSearchSaved}|for assert type|POS|with comment|Assert saved search exists                               |in page|Verify Saved Search|
|If                   |{$isSearchSaved}                                                                                                                       |
|variable             |title           |equals  to                                                                                                            |
|get  text  from      |{$SAVEDSEARCHPAGE.saveditemtitle}                                                                                                      |
|variable             |summary         |equals  to                                                                                                            |
|get  text  from      |{$SAVEDSEARCHPAGE.saveditemdescription}                                                                                                |
|assert and log result|COMMENT         |for assert type|NA |with comment|Saved search details: Title: {$title} Summary: {$summary}|in page|Saved Search       |
|End If                                                                                                                                                       |


!|Scenario|select beds               |beds              |
|click    |.//*[@id='beds-menu-label']/div              |
|click    |.//*[@id='bed-options']//a[text()='@beds']/..|


!|Scenario            |select baths            |baths             |
|click                |.//div[contains(text(),'more')]            |
|click                |.//*[@id='baths-dropdown']                 |
|click                |.//*[@id='bath-options']//a[text()='2+']/..|
|click                |.//*[@id='filterSearchButton']/span        |
|pause  execution  for|3                       |seconds           |

!|Scenario            |set price range                             |
|click                |.//*[@id='price-menu-label']/div            |
|pause  execution  for|2     |seconds                              |
|clear  text          |.//*[@id='price-min']                       |
|type                 |100000|into|.//*[@id='price-min']|text field|
|clear  text          |.//*[@id='price-max']                       |
|type                 |500000|into|.//*[@id='price-max']|text field|
>>>>>>> 6454c2b47d604dc5a0abcfb523ce48bed667bc79
