!|Scenario          |read input test data                                      |
|load               |Sheet1  |excel  sheet  from|{$DATASHEET.path}|in|read|mode|
|variable           |username|equals  to                                       |
|get  from excel row|2       |with column name  |username                      |
|variable           |password|equals  to                                       |
|get  from excel row|2       |with column name  |password                      |
|unload  excel sheet                                                           |
